<svg width="66" height="48" viewBox="0 0 66 48" fill="none" xmlns="http://www.w3.org/2000/svg">
<path fill-rule="evenodd" clip-rule="evenodd" d="M47.0098 27.3892C51.1198 30.1792 53.9998 33.9592 53.9998 38.9992V47.9992H65.9998V38.9992C65.9998 32.4592 55.2898 28.5892 47.0098 27.3892Z" fill="#808080"/>
<path d="M23.9998 24.0002C30.6272 24.0002 35.9998 18.6277 35.9998 12.0002C35.9998 5.37283 30.6272 0.000244141 23.9998 0.000244141C17.3723 0.000244141 11.9998 5.37283 11.9998 12.0002C11.9998 18.6277 17.3723 24.0002 23.9998 24.0002Z" fill="#808080"/>
<path fill-rule="evenodd" clip-rule="evenodd" d="M41.9998 24.0002C48.6298 24.0002 53.9998 18.6302 53.9998 12.0002C53.9998 5.37024 48.6298 0.000244141 41.9998 0.000244141C40.5898 0.000244141 39.2698 0.300243 38.0098 0.720243C40.4998 3.81024 41.9998 7.74024 41.9998 12.0002C41.9998 16.2602 40.4998 20.1902 38.0098 23.2802C39.2698 23.7002 40.5898 24.0002 41.9998 24.0002Z" fill="#808080"/>
<path fill-rule="evenodd" clip-rule="evenodd" d="M24.0002 27.0002C15.9902 27.0002 0.000244141 31.0202 0.000244141 39.0002V48.0002H48.0002V39.0002C48.0002 31.0202 32.0102 27.0002 24.0002 27.0002Z" fill="#808080"/>
</svg>
